<?xml version="1.0" encoding="UTF-8" standalone="no"?>
<!-- Created with Inkscape (http://www.inkscape.org/) -->

<svg
   xmlns:dc="http://purl.org/dc/elements/1.1/"
   xmlns:cc="http://creativecommons.org/ns#"
   xmlns:rdf="http://www.w3.org/1999/02/22-rdf-syntax-ns#"
   xmlns:svg="http://www.w3.org/2000/svg"
   xmlns="http://www.w3.org/2000/svg"
   xmlns:sodipodi="http://sodipodi.sourceforge.net/DTD/sodipodi-0.dtd"
   xmlns:inkscape="http://www.inkscape.org/namespaces/inkscape"
   width="190"
   height="190"
   viewBox="0 0 50.270832 50.270835"
   version="1.1"
   id="svg8"
   inkscape:version="0.92.3 (2405546, 2018-03-11)"
   sodipodi:docname="add-button.svg">
  <defs
     id="defs2" />
  <sodipodi:namedview
     id="base"
     pagecolor="#ffffff"
     bordercolor="#666666"
     borderopacity="1.0"
     inkscape:pageopacity="0.0"
     inkscape:pageshadow="2"
     inkscape:zoom="2.8284271"
     inkscape:cx="68.860281"
     inkscape:cy="72.977815"
     inkscape:document-units="mm"
     inkscape:current-layer="layer1"
     showgrid="true"
     units="px"
     showguides="true"
     inkscape:snap-path-clip="true"
     inkscape:snap-path-mask="true"
     gridtolerance="20"
     guidetolerance="3"
     inkscape:snap-perpendicular="true"
     inkscape:snap-tangential="true"
     inkscape:lockguides="true"
     inkscape:window-width="1920"
     inkscape:window-height="1011"
     inkscape:window-x="0"
     inkscape:window-y="0"
     inkscape:window-maximized="1"
     inkscape:snap-bbox="false"
     inkscape:snap-others="true"
     inkscape:snap-smooth-nodes="true">
    <inkscape:grid
       type="xygrid"
       id="grid817"
       empspacing="5"
       dotted="false" />
  </sodipodi:namedview>
  <metadata
     id="metadata5">
    <rdf:RDF>
      <cc:Work
         rdf:about="">
        <dc:format>image/svg+xml</dc:format>
        <dc:type
           rdf:resource="http://purl.org/dc/dcmitype/StillImage" />
        <dc:title />
      </cc:Work>
    </rdf:RDF>
  </metadata>
  <g
     inkscape:label="Layer 1"
     inkscape:groupmode="layer"
     id="layer1"
     transform="translate(0,-246.72914)">
    <path
       style="fill:#75e9c5;fill-opacity:1;stroke:none;stroke-width:0.26458332px;stroke-linecap:butt;stroke-linejoin:miter;stroke-opacity:1;image-rendering:auto"
       d="m 3.96875,263.92706 h 13.146485 l 0.132291,-13.17956 c 0,-1.32291 1.321883,-2.64273 2.644055,-2.6368 1.323662,0.006 9.262195,-0.014 10.58458,-0.0115 1.323448,0.003 2.646365,1.32505 2.646365,2.64796 l -0.04961,13.17956 13.229166,3.7e-4 c 1.322917,0 2.645834,1.32291 2.648243,2.64791 0.0024,1.32084 0.0026,9.26549 1.08e-4,10.5844 -0.0025,1.31977 -1.325433,2.64266 -2.648351,2.64269 l -13.229166,-3.7e-4 -0.05271,13.19233 c 0,1.32291 -1.270207,2.6884 -2.592477,2.68572 -1.323563,-0.003 -9.65254,-0.002 -10.579752,-0.001 -1.327145,0.001 -2.650061,-1.3243 -2.650061,-2.64722 l -0.08268,-13.22916 H 3.968751 c -1.3229167,0 -2.6458333,-1.32292 -2.6444996,-2.64499 0.00134,-1.32376 -5.198e-4,-9.6941 0.00115,-10.582 0.00249,-1.3251 1.3204332,-2.64801 2.6433499,-2.64801 z"
       id="path815"
       inkscape:connector-curvature="0"
       sodipodi:nodetypes="cccsscccsscccsscccsscc" />
    <path
       style="fill:#11694c;stroke:none;stroke-width:0.26458332px;stroke-linecap:butt;stroke-linejoin:miter;stroke-opacity:1;fill-opacity:0.31343284"
       d="m 17.197916,263.92706 h 15.875 v 15.875 h -15.875 z"
       id="path4557"
       inkscape:connector-curvature="0" />
    <path
       style="fill:#a65959;fill-opacity:1;stroke:#fa0000;stroke-width:0.09448819;stroke-linejoin:miter;stroke-miterlimit:4;stroke-dasharray:0.09448819, 0.09448819000000000;stroke-dashoffset:0;stroke-opacity:1;opacity:0"
       d="m 72.572623,183.95547 c -2.56956,-0.92567 -4.871193,-3.02819 -6.137229,-5.60631 l -0.698817,-1.42304 -0.156723,-12.875 c -0.0862,-7.08125 -0.170573,-18.64063 -0.1875,-25.6875 l -0.03078,-12.8125 h 29.5 29.500006 l -0.0264,17.0625 c -0.0145,9.38437 -0.10112,21 -0.19252,25.8125 l -0.16618,8.75 -0.80261,1.54572 c -0.97254,1.873 -2.74394,3.69366 -4.577,4.70428 l -1.36034,0.75 -21.875006,0.0543 c -17.571475,0.0436 -22.054804,-0.0105 -22.788954,-0.27495 z"
       id="path4565"
       inkscape:connector-curvature="0"
       transform="matrix(0.26458333,0,0,0.26458333,0,246.72914)" />
    <path
       style="opacity:0;fill:#a65959;fill-opacity:1;stroke:#fa0000;stroke-width:0.09448819;stroke-linejoin:miter;stroke-miterlimit:4;stroke-dasharray:0.09448819, 0.09448819;stroke-dashoffset:0;stroke-opacity:1"
       d="m 72.236577,183.79012 c -2.748843,-1.06644 -5.269047,-3.69769 -6.104671,-6.37366 -0.443183,-1.41924 -0.482519,-3.01772 -0.656725,-26.6875 l -0.185306,-25.17784 h 29.535852 29.535853 l -0.0309,15.9375 c -0.017,8.76562 -0.10135,20.32791 -0.1875,25.69397 l -0.15664,9.75647 -0.81538,1.65506 c -1.06366,2.15901 -3.45883,4.44629 -5.42724,5.18276 -1.38376,0.51773 -1.66692,0.52407 -22.82926,0.51121 -20.593172,-0.0125 -21.476829,-0.0319 -22.678123,-0.49797 z"
       id="path4567"
       inkscape:connector-curvature="0"
       transform="matrix(0.26458333,0,0,0.26458333,0,246.72914)" />
    <path
       style="opacity:0;fill:#a65959;fill-opacity:1;stroke:#fa0000;stroke-width:0.09448819;stroke-linejoin:miter;stroke-miterlimit:4;stroke-dasharray:0.09448819, 0.09448819;stroke-dashoffset:0;stroke-opacity:1"
       d="m 72.236577,183.79012 c -2.748843,-1.06644 -5.269047,-3.69769 -6.104671,-6.37366 -0.443183,-1.41924 -0.482519,-3.01772 -0.656725,-26.6875 l -0.185306,-25.17784 h 29.535852 29.535853 l -0.0309,15.9375 c -0.017,8.76562 -0.10135,20.32791 -0.1875,25.69397 l -0.15664,9.75647 -0.81538,1.65506 c -1.06366,2.15901 -3.45883,4.44629 -5.42724,5.18276 -1.38376,0.51773 -1.66692,0.52407 -22.82926,0.51121 -20.593172,-0.0125 -21.476829,-0.0319 -22.678123,-0.49797 z"
       id="path4569"
       inkscape:connector-curvature="0"
       transform="matrix(0.26458333,0,0,0.26458333,0,246.72914)" />
    <path
       style="opacity:0;fill:#ff00ff;fill-opacity:1;stroke:#fa0000;stroke-width:0.09448819;stroke-linejoin:miter;stroke-miterlimit:4;stroke-dasharray:0.09448819, 0.09448819000000000;stroke-dashoffset:0;stroke-opacity:1"
       d="m 72.674983,184.1888 c -3.537526,-1.11431 -6.814208,-4.99493 -7.164233,-8.48469 -0.0705,-0.7029 -0.191246,-12.27487 -0.268323,-25.71549 l -0.140139,-24.4375 h 29.764599 29.764603 l -0.14516,24.5625 c -0.0798,13.50937 -0.20462,25.15076 -0.27729,25.86975 -0.28855,2.8548 -2.85671,6.29907 -5.7596,7.72445 l -1.46286,0.7183 -21.625003,0.0485 c -17.46474,0.0392 -21.829231,-0.0158 -22.686594,-0.28586 z"
       id="path4571"
       inkscape:connector-curvature="0"
       transform="matrix(0.26458333,0,0,0.26458333,0,246.72914)" />
    <path
       style="opacity:0;fill:#ff00ff;fill-opacity:1;stroke:#fa0000;stroke-width:0.09448819;stroke-linejoin:miter;stroke-miterlimit:4;stroke-dasharray:0.09448819, 0.09448819;stroke-dashoffset:0;stroke-opacity:1"
       d="m 72.674983,184.1888 c -3.537526,-1.11431 -6.814208,-4.99493 -7.164233,-8.48469 -0.0705,-0.7029 -0.191246,-12.27487 -0.268323,-25.71549 l -0.140139,-24.4375 h 29.764599 29.764603 l -0.14516,24.5625 c -0.0798,13.50937 -0.20462,25.15076 -0.27729,25.86975 -0.28855,2.8548 -2.85671,6.29907 -5.7596,7.72445 l -1.46286,0.7183 -21.625003,0.0485 c -17.46474,0.0392 -21.829231,-0.0158 -22.686594,-0.28586 z"
       id="path4573"
       inkscape:connector-curvature="0"
       transform="matrix(0.26458333,0,0,0.26458333,0,246.72914)" />
    <path
       style="opacity:0;fill:#ff00ff;fill-opacity:1;stroke:#fa0000;stroke-width:0.09448819;stroke-linejoin:miter;stroke-miterlimit:4;stroke-dasharray:0.09448819, 0.09448819;stroke-dashoffset:0;stroke-opacity:1"
       d="m 72.674983,184.1888 c -3.537526,-1.11431 -6.814208,-4.99493 -7.164233,-8.48469 -0.0705,-0.7029 -0.191246,-12.27487 -0.268323,-25.71549 l -0.140139,-24.4375 h 29.764599 29.764603 l -0.14516,24.5625 c -0.0798,13.50937 -0.20462,25.15076 -0.27729,25.86975 -0.28855,2.8548 -2.85671,6.29907 -5.7596,7.72445 l -1.46286,0.7183 -21.625003,0.0485 c -17.46474,0.0392 -21.829231,-0.0158 -22.686594,-0.28586 z"
       id="path4575"
       inkscape:connector-curvature="0"
       transform="matrix(0.26458333,0,0,0.26458333,0,246.72914)" />
    <path
       style="opacity:0;fill:#ff00ff;fill-opacity:1;stroke:#fa0000;stroke-width:0.09448819;stroke-linejoin:miter;stroke-miterlimit:4;stroke-dasharray:0.09448819, 0.09448819;stroke-dashoffset:0;stroke-opacity:1"
       d="m 72.674983,184.1888 c -3.537526,-1.11431 -6.814208,-4.99493 -7.164233,-8.48469 -0.0705,-0.7029 -0.191246,-12.27487 -0.268323,-25.71549 l -0.140139,-24.4375 h 29.764599 29.764603 l -0.14516,24.5625 c -0.0798,13.50937 -0.20462,25.15076 -0.27729,25.86975 -0.28855,2.8548 -2.85671,6.29907 -5.7596,7.72445 l -1.46286,0.7183 -21.625003,0.0485 c -17.46474,0.0392 -21.829231,-0.0158 -22.686594,-0.28586 z"
       id="path4577"
       inkscape:connector-curvature="0"
       transform="matrix(0.26458333,0,0,0.26458333,0,246.72914)" />
    <path
       style="opacity:0;fill:#ff00ff;fill-opacity:1;stroke:#fa0000;stroke-width:0.09448819;stroke-linejoin:miter;stroke-miterlimit:4;stroke-dasharray:0.09448819, 0.09448819;stroke-dashoffset:0;stroke-opacity:1"
       d="m 72.674983,184.1888 c -3.537526,-1.11431 -6.814208,-4.99493 -7.164233,-8.48469 -0.0705,-0.7029 -0.191246,-12.27487 -0.268323,-25.71549 l -0.140139,-24.4375 h 29.764599 29.764603 l -0.14516,24.5625 c -0.0798,13.50937 -0.20462,25.15076 -0.27729,25.86975 -0.28855,2.8548 -2.85671,6.29907 -5.7596,7.72445 l -1.46286,0.7183 -21.625003,0.0485 c -17.46474,0.0392 -21.829231,-0.0158 -22.686594,-0.28586 z"
       id="path4579"
       inkscape:connector-curvature="0"
       transform="matrix(0.26458333,0,0,0.26458333,0,246.72914)" />
    <path
       style="opacity:0;fill:#ff00ff;fill-opacity:1;stroke:#fa0000;stroke-width:0.09448819;stroke-linejoin:miter;stroke-miterlimit:4;stroke-dasharray:0.09448819, 0.09448819;stroke-dashoffset:0;stroke-opacity:1"
       d="m 73.417207,184.289 c -2.6099,-0.52267 -5.66219,-3.00228 -6.967236,-5.66004 l -0.713394,-1.45284 -0.179195,-6.875 c -0.09856,-3.78125 -0.211058,-15.39691 -0.25,-25.81258 l -0.07081,-18.93757 29.5625,7e-5 29.562508,8e-5 v 24.57908 c 0,16.6204 -0.088,25.05941 -0.27174,26.0625 -0.56773,3.09921 -2.98233,6.18504 -5.9151,7.55944 l -1.43816,0.67398 -21.125008,0.0385 c -11.61875,0.0212 -21.606216,-0.0579 -22.19437,-0.17563 z"
       id="path4581"
       inkscape:connector-curvature="0"
       transform="matrix(0.26458333,0,0,0.26458333,0,246.72914)" />
    <path
       style="opacity:0;fill:#ff00ff;fill-opacity:1;stroke:#fa0000;stroke-width:0.09448819;stroke-linejoin:miter;stroke-miterlimit:4;stroke-dasharray:0.09448819, 0.09448819;stroke-dashoffset:0;stroke-opacity:1"
       d="m 73.417207,184.289 c -2.6099,-0.52267 -5.66219,-3.00228 -6.967236,-5.66004 l -0.713394,-1.45284 -0.179195,-6.875 c -0.09856,-3.78125 -0.211058,-15.39691 -0.25,-25.81258 l -0.07081,-18.93757 29.5625,7e-5 29.562508,8e-5 v 24.57908 c 0,16.6204 -0.088,25.05941 -0.27174,26.0625 -0.56773,3.09921 -2.98233,6.18504 -5.9151,7.55944 l -1.43816,0.67398 -21.125008,0.0385 c -11.61875,0.0212 -21.606216,-0.0579 -22.19437,-0.17563 z"
       id="path4583"
       inkscape:connector-curvature="0"
       transform="matrix(0.26458333,0,0,0.26458333,0,246.72914)" />
    <path
       style="opacity:0;fill:#ff00ff;fill-opacity:1;stroke:#fa0000;stroke-width:0.09448819;stroke-linejoin:miter;stroke-miterlimit:4;stroke-dasharray:0.09448819, 0.09448819;stroke-dashoffset:0;stroke-opacity:1"
       d="m 73.417207,184.289 c -2.6099,-0.52267 -5.66219,-3.00228 -6.967236,-5.66004 l -0.713394,-1.45284 -0.179195,-6.875 c -0.09856,-3.78125 -0.211058,-15.39691 -0.25,-25.81258 l -0.07081,-18.93757 29.5625,7e-5 29.562508,8e-5 v 24.57908 c 0,16.6204 -0.088,25.05941 -0.27174,26.0625 -0.56773,3.09921 -2.98233,6.18504 -5.9151,7.55944 l -1.43816,0.67398 -21.125008,0.0385 c -11.61875,0.0212 -21.606216,-0.0579 -22.19437,-0.17563 z"
       id="path4585"
       inkscape:connector-curvature="0"
       transform="matrix(0.26458333,0,0,0.26458333,0,246.72914)" />
    <path
       style="opacity:0;fill:#ff00ff;fill-opacity:1;stroke:#fa0000;stroke-width:0.09448819;stroke-linejoin:miter;stroke-miterlimit:4;stroke-dasharray:0.09448819, 0.09448819;stroke-dashoffset:0;stroke-opacity:1"
       d="m 73.417207,184.289 c -2.6099,-0.52267 -5.66219,-3.00228 -6.967236,-5.66004 l -0.713394,-1.45284 -0.179195,-6.875 c -0.09856,-3.78125 -0.211058,-15.39691 -0.25,-25.81258 l -0.07081,-18.93757 29.5625,7e-5 29.562508,8e-5 v 24.57908 c 0,16.6204 -0.088,25.05941 -0.27174,26.0625 -0.56773,3.09921 -2.98233,6.18504 -5.9151,7.55944 l -1.43816,0.67398 -21.125008,0.0385 c -11.61875,0.0212 -21.606216,-0.0579 -22.19437,-0.17563 z"
       id="path4587"
       inkscape:connector-curvature="0"
       transform="matrix(0.26458333,0,0,0.26458333,0,246.72914)" />
    <path
       style="opacity:0;fill:#ff00ff;fill-opacity:1;stroke:#fa0000;stroke-width:0.09448819;stroke-linejoin:miter;stroke-miterlimit:4;stroke-dasharray:0.09448819, 0.09448819;stroke-dashoffset:0;stroke-opacity:1"
       d="m 73.417207,184.289 c -2.6099,-0.52267 -5.66219,-3.00228 -6.967236,-5.66004 l -0.713394,-1.45284 -0.179195,-6.875 c -0.09856,-3.78125 -0.211058,-15.39691 -0.25,-25.81258 l -0.07081,-18.93757 29.5625,7e-5 29.562508,8e-5 v 24.57908 c 0,16.6204 -0.088,25.05941 -0.27174,26.0625 -0.56773,3.09921 -2.98233,6.18504 -5.9151,7.55944 l -1.43816,0.67398 -21.125008,0.0385 c -11.61875,0.0212 -21.606216,-0.0579 -22.19437,-0.17563 z"
       id="path4589"
       inkscape:connector-curvature="0"
       transform="matrix(0.26458333,0,0,0.26458333,0,246.72914)" />
    <path
       style="opacity:0;fill:#ff00ff;fill-opacity:1;stroke:#fa0000;stroke-width:0.09448819;stroke-linejoin:miter;stroke-miterlimit:4;stroke-dasharray:0.09448819, 0.09448819;stroke-dashoffset:0;stroke-opacity:1"
       d="m 65.611577,95.051117 v -29.5 h 29.375 29.375003 v 29.5 29.500003 h -29.375003 -29.375 z"
       id="path4591"
       inkscape:connector-curvature="0"
       transform="matrix(0.26458333,0,0,0.26458333,0,246.72914)" />
    <path
       style="opacity:0;fill:#ff00ff;fill-opacity:1;stroke:#fa0000;stroke-width:0.09448819;stroke-linejoin:miter;stroke-miterlimit:4;stroke-dasharray:0.09448819, 0.09448819;stroke-dashoffset:0;stroke-opacity:1"
       d="m 65.611577,95.051117 v -29.5 h 29.375 29.375003 v 29.5 29.500003 h -29.375003 -29.375 z"
       id="path4593"
       inkscape:connector-curvature="0"
       transform="matrix(0.26458333,0,0,0.26458333,0,246.72914)" />
    <path
       style="opacity:0;fill:#ff00ff;fill-opacity:1;stroke:#fa0000;stroke-width:0.09448819;stroke-linejoin:miter;stroke-miterlimit:4;stroke-dasharray:0.09448819, 0.09448819;stroke-dashoffset:0;stroke-opacity:1"
       d="m 72.236577,183.87067 c -2.403804,-0.97277 -4.73583,-3.18125 -5.834898,-5.52577 l -0.665102,-1.41878 -0.158508,-11.25 c -0.08718,-6.1875 -0.171555,-17.74688 -0.1875,-25.6875 l -0.02899,-14.4375 h 29.5 29.500001 l -0.025,19.6875 c -0.0138,10.82812 -0.10208,22.44375 -0.19631,25.8125 -0.169,6.04216 -0.18083,6.14463 -0.87497,7.57688 -0.95859,1.9779 -2.98657,3.997 -4.94526,4.92361 l -1.58347,0.74911 -21.750001,-0.0127 c -19.44482,-0.0113 -21.855985,-0.0556 -22.75,-0.41737 z"
       id="path4595"
       inkscape:connector-curvature="0"
       transform="matrix(0.26458333,0,0,0.26458333,0,246.72914)" />
    <path
       style="opacity:0;fill:#ff00ff;fill-opacity:1;stroke:#fa0000;stroke-width:0.09448819;stroke-linejoin:miter;stroke-miterlimit:4;stroke-dasharray:0.09448819, 0.09448819;stroke-dashoffset:0;stroke-opacity:1"
       d="m 72.236577,183.87067 c -2.403804,-0.97277 -4.73583,-3.18125 -5.834898,-5.52577 l -0.665102,-1.41878 -0.158508,-11.25 c -0.08718,-6.1875 -0.171555,-17.74688 -0.1875,-25.6875 l -0.02899,-14.4375 h 29.5 29.500001 l -0.025,19.6875 c -0.0138,10.82812 -0.10208,22.44375 -0.19631,25.8125 -0.169,6.04216 -0.18083,6.14463 -0.87497,7.57688 -0.95859,1.9779 -2.98657,3.997 -4.94526,4.92361 l -1.58347,0.74911 -21.750001,-0.0127 c -19.44482,-0.0113 -21.855985,-0.0556 -22.75,-0.41737 z"
       id="path4597"
       inkscape:connector-curvature="0"
       transform="matrix(0.26458333,0,0,0.26458333,0,246.72914)" />
    <path
       style="opacity:0;fill:#ff00ff;fill-opacity:1;stroke:#fa0000;stroke-width:0.09448819;stroke-linejoin:miter;stroke-miterlimit:4;stroke-dasharray:0.09448819, 0.09448819;stroke-dashoffset:0;stroke-opacity:1"
       d="m 72.236577,183.87067 c -2.403804,-0.97277 -4.73583,-3.18125 -5.834898,-5.52577 l -0.665102,-1.41878 -0.158508,-11.25 c -0.08718,-6.1875 -0.171555,-17.74688 -0.1875,-25.6875 l -0.02899,-14.4375 h 29.5 29.500001 l -0.025,19.6875 c -0.0138,10.82812 -0.10208,22.44375 -0.19631,25.8125 -0.169,6.04216 -0.18083,6.14463 -0.87497,7.57688 -0.95859,1.9779 -2.98657,3.997 -4.94526,4.92361 l -1.58347,0.74911 -21.750001,-0.0127 c -19.44482,-0.0113 -21.855985,-0.0556 -22.75,-0.41737 z"
       id="path4599"
       inkscape:connector-curvature="0"
       transform="matrix(0.26458333,0,0,0.26458333,0,246.72914)" />
    <path
       style="opacity:0;fill:#ff00ff;fill-opacity:1;stroke:#fa0000;stroke-width:0.09448819;stroke-linejoin:miter;stroke-miterlimit:4;stroke-dasharray:0.09448819, 0.09448819;stroke-dashoffset:0;stroke-opacity:1"
       d="m 72.236577,183.87067 c -2.403804,-0.97277 -4.73583,-3.18125 -5.834898,-5.52577 l -0.665102,-1.41878 -0.158508,-11.25 c -0.08718,-6.1875 -0.171555,-17.74688 -0.1875,-25.6875 l -0.02899,-14.4375 h 29.5 29.500001 l -0.025,19.6875 c -0.0138,10.82812 -0.10208,22.44375 -0.19631,25.8125 -0.169,6.04216 -0.18083,6.14463 -0.87497,7.57688 -0.95859,1.9779 -2.98657,3.997 -4.94526,4.92361 l -1.58347,0.74911 -21.750001,-0.0127 c -19.44482,-0.0113 -21.855985,-0.0556 -22.75,-0.41737 z"
       id="path4601"
       inkscape:connector-curvature="0"
       transform="matrix(0.26458333,0,0,0.26458333,0,246.72914)" />
    <path
       style="opacity:0;fill:#ff00ff;fill-opacity:1;stroke:#fa0000;stroke-width:0.09448819;stroke-linejoin:miter;stroke-miterlimit:4;stroke-dasharray:0.09448819, 0.09448819;stroke-dashoffset:0;stroke-opacity:1"
       d="m 72.236577,183.87067 c -2.403804,-0.97277 -4.73583,-3.18125 -5.834898,-5.52577 l -0.665102,-1.41878 -0.158508,-11.25 c -0.08718,-6.1875 -0.171555,-17.74688 -0.1875,-25.6875 l -0.02899,-14.4375 h 29.5 29.500001 l -0.025,19.6875 c -0.0138,10.82812 -0.10208,22.44375 -0.19631,25.8125 -0.169,6.04216 -0.18083,6.14463 -0.87497,7.57688 -0.95859,1.9779 -2.98657,3.997 -4.94526,4.92361 l -1.58347,0.74911 -21.750001,-0.0127 c -19.44482,-0.0113 -21.855985,-0.0556 -22.75,-0.41737 z"
       id="path4603"
       inkscape:connector-curvature="0"
       transform="matrix(0.26458333,0,0,0.26458333,0,246.72914)" />
    <path
       style="opacity:0;fill:#ff00ff;fill-opacity:1;stroke:#fa0000;stroke-width:0.09448819;stroke-linejoin:miter;stroke-miterlimit:4;stroke-dasharray:0.09448819, 0.09448819;stroke-dashoffset:0;stroke-opacity:1"
       d="m 72.236577,183.87067 c -2.403804,-0.97277 -4.73583,-3.18125 -5.834898,-5.52577 l -0.665102,-1.41878 -0.158508,-11.25 c -0.08718,-6.1875 -0.171555,-17.74688 -0.1875,-25.6875 l -0.02899,-14.4375 h 29.5 29.500001 l -0.025,19.6875 c -0.0138,10.82812 -0.10208,22.44375 -0.19631,25.8125 -0.169,6.04216 -0.18083,6.14463 -0.87497,7.57688 -0.95859,1.9779 -2.98657,3.997 -4.94526,4.92361 l -1.58347,0.74911 -21.750001,-0.0127 c -19.44482,-0.0113 -21.855985,-0.0556 -22.75,-0.41737 z"
       id="path4624"
       inkscape:connector-curvature="0"
       transform="matrix(0.26458333,0,0,0.26458333,0,246.72914)" />
    <path
       style="opacity:0;fill:#ff00ff;fill-opacity:1;stroke:#fa0000;stroke-width:0.09448819;stroke-linejoin:miter;stroke-miterlimit:4;stroke-dasharray:0.09448819, 0.09448819;stroke-dashoffset:0;stroke-opacity:1"
       d="m 72.236577,183.87067 c -2.403804,-0.97277 -4.73583,-3.18125 -5.834898,-5.52577 l -0.665102,-1.41878 -0.158508,-11.25 c -0.08718,-6.1875 -0.171555,-17.74688 -0.1875,-25.6875 l -0.02899,-14.4375 h 29.5 29.500001 l -0.025,19.6875 c -0.0138,10.82812 -0.10208,22.44375 -0.19631,25.8125 -0.169,6.04216 -0.18083,6.14463 -0.87497,7.57688 -0.95859,1.9779 -2.98657,3.997 -4.94526,4.92361 l -1.58347,0.74911 -21.750001,-0.0127 c -19.44482,-0.0113 -21.855985,-0.0556 -22.75,-0.41737 z"
       id="path4626"
       inkscape:connector-curvature="0"
       transform="matrix(0.26458333,0,0,0.26458333,0,246.72914)" />
    <path
       style="opacity:0;fill:#ff00ff;fill-opacity:1;stroke:#fa0000;stroke-width:0.09448819;stroke-linejoin:miter;stroke-miterlimit:4;stroke-dasharray:0.09448819, 0.09448819;stroke-dashoffset:0;stroke-opacity:1"
       d="m 72.23658,183.87067 c -2.403804,-0.97277 -4.73583,-3.18125 -5.834898,-5.52577 l -0.665102,-1.41878 -0.158508,-11.25 c -0.08718,-6.1875 -0.171555,-17.74688 -0.1875,-25.6875 l -0.02899,-14.4375 h 29.5 29.499998 l -0.025,19.6875 c -0.0138,10.82812 -0.10208,22.44375 -0.19631,25.8125 -0.169,6.04216 -0.18083,6.14463 -0.87497,7.57688 -0.95858,1.9779 -2.98656,3.997 -4.94525,4.92361 l -1.58348,0.74911 -21.749998,-0.0127 c -19.444821,-0.0113 -21.855985,-0.0556 -22.75,-0.41737 z"
       id="path35"
       inkscape:connector-curvature="0"
       transform="matrix(0.26458333,0,0,0.26458333,0,246.72914)" />
    <path
       style="opacity:0;fill:#ff00ff;fill-opacity:1;stroke:#fa0000;stroke-width:0.09448819;stroke-linejoin:miter;stroke-miterlimit:4;stroke-dasharray:0.09448819, 0.09448819;stroke-dashoffset:0;stroke-opacity:1"
       d="m 72.23658,183.87067 c -2.403804,-0.97277 -4.73583,-3.18125 -5.834898,-5.52577 l -0.665102,-1.41878 -0.158508,-11.25 c -0.08718,-6.1875 -0.171555,-17.74688 -0.1875,-25.6875 l -0.02899,-14.4375 h 29.5 29.499998 l -0.025,19.6875 c -0.0138,10.82812 -0.10208,22.44375 -0.19631,25.8125 -0.169,6.04216 -0.18083,6.14463 -0.87497,7.57688 -0.95858,1.9779 -2.98656,3.997 -4.94525,4.92361 l -1.58348,0.74911 -21.749998,-0.0127 c -19.444821,-0.0113 -21.855985,-0.0556 -22.75,-0.41737 z"
       id="path37"
       inkscape:connector-curvature="0"
       transform="matrix(0.26458333,0,0,0.26458333,0,246.72914)" />
    <path
       style="opacity:0;fill:#ff00ff;fill-opacity:1;stroke:#fa0000;stroke-width:0.09448819;stroke-linejoin:miter;stroke-miterlimit:4;stroke-dasharray:0.09448819, 0.09448819;stroke-dashoffset:0;stroke-opacity:1"
       d="m 72.23658,183.87067 c -2.403804,-0.97277 -4.73583,-3.18125 -5.834898,-5.52577 l -0.665102,-1.41878 -0.158508,-11.25 c -0.08718,-6.1875 -0.171555,-17.74688 -0.1875,-25.6875 l -0.02899,-14.4375 h 29.5 29.499998 l -0.025,19.6875 c -0.0138,10.82812 -0.10208,22.44375 -0.19631,25.8125 -0.169,6.04216 -0.18083,6.14463 -0.87497,7.57688 -0.95858,1.9779 -2.98656,3.997 -4.94525,4.92361 l -1.58348,0.74911 -21.749998,-0.0127 c -19.444821,-0.0113 -21.855985,-0.0556 -22.75,-0.41737 z"
       id="path39"
       inkscape:connector-curvature="0"
       transform="matrix(0.26458333,0,0,0.26458333,0,246.72914)" />
    <path
       style="opacity:0;fill:#ff00ff;fill-opacity:1;stroke:#fa0000;stroke-width:0.09448819;stroke-linejoin:miter;stroke-miterlimit:4;stroke-dasharray:0.09448819, 0.09448819;stroke-dashoffset:0;stroke-opacity:1"
       d="m 72.23658,183.87067 c -2.403804,-0.97277 -4.73583,-3.18125 -5.834898,-5.52577 l -0.665102,-1.41878 -0.158508,-11.25 c -0.08718,-6.1875 -0.171555,-17.74688 -0.1875,-25.6875 l -0.02899,-14.4375 h 29.5 29.499998 l -0.025,19.6875 c -0.0138,10.82812 -0.10208,22.44375 -0.19631,25.8125 -0.169,6.04216 -0.18083,6.14463 -0.87497,7.57688 -0.95858,1.9779 -2.98656,3.997 -4.94525,4.92361 l -1.58348,0.74911 -21.749998,-0.0127 c -19.444821,-0.0113 -21.855985,-0.0556 -22.75,-0.41737 z"
       id="path41"
       inkscape:connector-curvature="0"
       transform="matrix(0.26458333,0,0,0.26458333,0,246.72914)" />
    <path
       style="opacity:0;fill:#ff00ff;fill-opacity:1;stroke:#fa0000;stroke-width:0.09448819;stroke-linejoin:miter;stroke-miterlimit:4;stroke-dasharray:0.09448819, 0.09448819;stroke-dashoffset:0;stroke-opacity:1"
       d="m 72.23658,183.87067 c -2.403804,-0.97277 -4.73583,-3.18125 -5.834898,-5.52577 l -0.665102,-1.41878 -0.158508,-11.25 c -0.08718,-6.1875 -0.171555,-17.74688 -0.1875,-25.6875 l -0.02899,-14.4375 h 29.5 29.499998 l -0.025,19.6875 c -0.0138,10.82812 -0.10208,22.44375 -0.19631,25.8125 -0.169,6.04216 -0.18083,6.14463 -0.87497,7.57688 -0.95858,1.9779 -2.98656,3.997 -4.94525,4.92361 l -1.58348,0.74911 -21.749998,-0.0127 c -19.444821,-0.0113 -21.855985,-0.0556 -22.75,-0.41737 z"
       id="path43"
       inkscape:connector-curvature="0"
       transform="matrix(0.26458333,0,0,0.26458333,0,246.72914)" />
    <path
       style="opacity:0;fill:#ff00ff;fill-opacity:1;stroke:#fa0000;stroke-width:0.09448819;stroke-linejoin:miter;stroke-miterlimit:4;stroke-dasharray:0.09448819, 0.09448819;stroke-dashoffset:0;stroke-opacity:1"
       d="m 72.23658,183.87067 c -2.403804,-0.97277 -4.73583,-3.18125 -5.834898,-5.52577 l -0.665102,-1.41878 -0.158508,-11.25 c -0.08718,-6.1875 -0.171555,-17.74688 -0.1875,-25.6875 l -0.02899,-14.4375 h 29.5 29.499998 l -0.025,19.6875 c -0.0138,10.82812 -0.10208,22.44375 -0.19631,25.8125 -0.169,6.04216 -0.18083,6.14463 -0.87497,7.57688 -0.95858,1.9779 -2.98656,3.997 -4.94525,4.92361 l -1.58348,0.74911 -21.749998,-0.0127 c -19.444821,-0.0113 -21.855985,-0.0556 -22.75,-0.41737 z"
       id="path45"
       inkscape:connector-curvature="0"
       transform="matrix(0.26458333,0,0,0.26458333,0,246.72914)" />
    <path
       style="opacity:0;fill:#ff00ff;fill-opacity:1;stroke:#fa0000;stroke-width:0.09448819;stroke-linejoin:miter;stroke-miterlimit:4;stroke-dasharray:0.09448819, 0.09448819;stroke-dashoffset:0;stroke-opacity:1"
       d="m 72.23658,183.87067 c -2.403804,-0.97277 -4.73583,-3.18125 -5.834898,-5.52577 l -0.665102,-1.41878 -0.158508,-11.25 c -0.08718,-6.1875 -0.171555,-17.74688 -0.1875,-25.6875 l -0.02899,-14.4375 h 29.5 29.499998 l -0.025,19.6875 c -0.0138,10.82812 -0.10208,22.44375 -0.19631,25.8125 -0.169,6.04216 -0.18083,6.14463 -0.87497,7.57688 -0.95858,1.9779 -2.98656,3.997 -4.94525,4.92361 l -1.58348,0.74911 -21.749998,-0.0127 c -19.444821,-0.0113 -21.855985,-0.0556 -22.75,-0.41737 z"
       id="path47"
       inkscape:connector-curvature="0"
       transform="matrix(0.26458333,0,0,0.26458333,0,246.72914)" />
    <path
       style="opacity:0;fill:#ff00ff;fill-opacity:1;stroke:#fa0000;stroke-width:0.09448819;stroke-linejoin:miter;stroke-miterlimit:4;stroke-dasharray:0.09448819, 0.09448819;stroke-dashoffset:0;stroke-opacity:1"
       d="m 72.23658,183.87067 c -2.403804,-0.97277 -4.73583,-3.18125 -5.834898,-5.52577 l -0.665102,-1.41878 -0.158508,-11.25 c -0.08718,-6.1875 -0.171555,-17.74688 -0.1875,-25.6875 l -0.02899,-14.4375 h 29.5 29.499998 l -0.025,19.6875 c -0.0138,10.82812 -0.10208,22.44375 -0.19631,25.8125 -0.169,6.04216 -0.18083,6.14463 -0.87497,7.57688 -0.95858,1.9779 -2.98656,3.997 -4.94525,4.92361 l -1.58348,0.74911 -21.749998,-0.0127 c -19.444821,-0.0113 -21.855985,-0.0556 -22.75,-0.41737 z"
       id="path49"
       inkscape:connector-curvature="0"
       transform="matrix(0.26458333,0,0,0.26458333,0,246.72914)" />
    <path
       style="opacity:0;fill:#ff00ff;fill-opacity:1;stroke:#fa0000;stroke-width:0.09448819;stroke-linejoin:miter;stroke-miterlimit:4;stroke-dasharray:0.09448819, 0.09448819;stroke-dashoffset:0;stroke-opacity:1"
       d="m 72.23658,183.87067 c -2.403804,-0.97277 -4.73583,-3.18125 -5.834898,-5.52577 l -0.665102,-1.41878 -0.158508,-11.25 c -0.08718,-6.1875 -0.171555,-17.74688 -0.1875,-25.6875 l -0.02899,-14.4375 h 29.5 29.499998 l -0.025,19.6875 c -0.0138,10.82812 -0.10208,22.44375 -0.19631,25.8125 -0.169,6.04216 -0.18083,6.14463 -0.87497,7.57688 -0.95858,1.9779 -2.98656,3.997 -4.94525,4.92361 l -1.58348,0.74911 -21.749998,-0.0127 c -19.444821,-0.0113 -21.855985,-0.0556 -22.75,-0.41737 z"
       id="path51"
       inkscape:connector-curvature="0"
       transform="matrix(0.26458333,0,0,0.26458333,0,246.72914)" />
    <path
       style="opacity:0;fill:#ff00ff;fill-opacity:1;stroke:#fa0000;stroke-width:0.09448819;stroke-linejoin:miter;stroke-miterlimit:4;stroke-dasharray:0.09448819, 0.09448819;stroke-dashoffset:0;stroke-opacity:1"
       d="m 72.23658,183.87067 c -2.403804,-0.97277 -4.73583,-3.18125 -5.834898,-5.52577 l -0.665102,-1.41878 -0.158508,-11.25 c -0.08718,-6.1875 -0.171555,-17.74688 -0.1875,-25.6875 l -0.02899,-14.4375 h 29.5 29.499998 l -0.025,19.6875 c -0.0138,10.82812 -0.10208,22.44375 -0.19631,25.8125 -0.169,6.04216 -0.18083,6.14463 -0.87497,7.57688 -0.95858,1.9779 -2.98656,3.997 -4.94525,4.92361 l -1.58348,0.74911 -21.749998,-0.0127 c -19.444821,-0.0113 -21.855985,-0.0556 -22.75,-0.41737 z"
       id="path53"
       inkscape:connector-curvature="0"
       transform="matrix(0.26458333,0,0,0.26458333,0,246.72914)" />
    <path
       style="opacity:0;fill:#ff00ff;fill-opacity:1;stroke:#fa0000;stroke-width:0.09448819;stroke-linejoin:miter;stroke-miterlimit:4;stroke-dasharray:0.09448819, 0.09448819;stroke-dashoffset:0;stroke-opacity:1"
       d="m 72.23658,183.87067 c -2.403804,-0.97277 -4.73583,-3.18125 -5.834898,-5.52577 l -0.665102,-1.41878 -0.158508,-11.25 c -0.08718,-6.1875 -0.171555,-17.74688 -0.1875,-25.6875 l -0.02899,-14.4375 h 29.5 29.499998 l -0.025,19.6875 c -0.0138,10.82812 -0.10208,22.44375 -0.19631,25.8125 -0.169,6.04216 -0.18083,6.14463 -0.87497,7.57688 -0.95858,1.9779 -2.98656,3.997 -4.94525,4.92361 l -1.58348,0.74911 -21.749998,-0.0127 c -19.444821,-0.0113 -21.855985,-0.0556 -22.75,-0.41737 z"
       id="path55"
       inkscape:connector-curvature="0"
       transform="matrix(0.26458333,0,0,0.26458333,0,246.72914)" />
    <path
       style="opacity:0;fill:#ff00ff;fill-opacity:1;stroke:#fa0000;stroke-width:0.09448819;stroke-linejoin:miter;stroke-miterlimit:4;stroke-dasharray:0.09448819, 0.09448819;stroke-dashoffset:0;stroke-opacity:1"
       d="m 72.23658,183.87067 c -2.403804,-0.97277 -4.73583,-3.18125 -5.834898,-5.52577 l -0.665102,-1.41878 -0.158508,-11.25 c -0.08718,-6.1875 -0.171555,-17.74688 -0.1875,-25.6875 l -0.02899,-14.4375 h 29.5 29.499998 l -0.025,19.6875 c -0.0138,10.82812 -0.10208,22.44375 -0.19631,25.8125 -0.169,6.04216 -0.18083,6.14463 -0.87497,7.57688 -0.95858,1.9779 -2.98656,3.997 -4.94525,4.92361 l -1.58348,0.74911 -21.749998,-0.0127 c -19.444821,-0.0113 -21.855985,-0.0556 -22.75,-0.41737 z"
       id="path57"
       inkscape:connector-curvature="0"
       transform="matrix(0.26458333,0,0,0.26458333,0,246.72914)" />
  </g>
</svg>
